[{
	"instance": {
		"attributes": {
			"afdeling": "Staatsbosbeheer",
			"agendapunt_nummer": 2,
			"omschrijving": "Diemerbos omhakken",
			"portefeuillehouder1": "de Vries"
		},
		"casetype": {
			"instance": {
				"name": "Voorstel"
			},
			"reference": "c79fb00d-2ea0-4fbf-b821-d3b2239f4b3d",
			"type": "casetype"
		},
		"child_relations": {
			"instance": {
				"rows": []
			},
			"type": "set"
		},
		"date_of_registration": "2015-11-25T09:37:40Z",
		"date_target": "2015-12-25T09:37:40Z",
		"id": "b47c34ef-2dbb-4536-942a-1ff0f6274ecd",
		"number": 22,
		"parent_relation": {},
		"phase": "Afhandelen",
		"relations": {
			"instance": {
				"rows": [{
					"reference": "13a9ced5-2d7a-40d9-9fff-714b58e8580d",
					"type": "case"
				}, {
					"reference": "3ede210e-cd9b-4000-bb16-0c9e0b15f6a5",
					"type": "case"
				}, {
					"reference": "b8a5db43-7930-4a0d-a31b-75c900e3732e",
					"type": "case"
				}]
			},
			"type": "set"
		},
		"result": null,
		"status": "open",
		"subject_external": null
	},
	"reference": "b47c34ef-2dbb-4536-942a-1ff0f6274ecd",
	"type": "case"
}, {
	"instance": {
		"attributes": {
			"afdeling": "Huurcommissie",
			"agendapunt_nummer": 1,
			"omschrijving": "Toch maar eens gaan praten",
			"portefeuillehouder1": "Matthieu de Boer"
		},
		"casetype": {
			"instance": {
				"name": "Voorstel"
			},
			"reference": "c79fb00d-2ea0-4fbf-b821-d3b2239f4b3d",
			"type": "casetype"
		},
		"child_relations": {
			"instance": {
				"rows": []
			},
			"type": "set"
		},
		"date_of_registration": "2015-11-23T14:21:29Z",
		"date_target": "2015-12-23T14:21:29Z",
		"id": "0136c992-6a6b-4b3c-866b-9bd273e98499",
		"number": 20,
		"parent_relation": {},
		"phase": "Afhandelen",
		"relations": {
			"instance": {
				"rows": []
			},
			"type": "set"
		},
		"result": null,
		"status": "new",
		"subject_external": null
	},
	"reference": "0136c992-6a6b-4b3c-866b-9bd273e98499",
	"type": "case"
}, {
	"instance": {
		"attributes": {
			"afdeling": "Dienst Schoonmaak",
			"agendapunt_nummer": 5,
			"omschrijving": "Weer een ding",
			"portefeuillehouder1": "Chtulu"
		},
		"casetype": {
			"instance": {
				"name": "Voorstel"
			},
			"reference": "c79fb00d-2ea0-4fbf-b821-d3b2239f4b3d",
			"type": "casetype"
		},
		"child_relations": {
			"instance": {
				"rows": []
			},
			"type": "set"
		},
		"date_of_registration": "2015-11-25T12:20:01Z",
		"date_target": "2015-12-25T12:20:01Z",
		"id": "d901088d-68ef-473a-9631-f22d116a6331",
		"number": 25,
		"parent_relation": {},
		"phase": "Afhandelen",
		"relations": {
			"instance": {
				"rows": [{
					"reference": "2c739f1a-7c1f-43d5-bb85-fbd21cdb28ec",
					"type": "case"
				}, {
					"reference": "b8a5db43-7930-4a0d-a31b-75c900e3732e",
					"type": "case"
				}]
			},
			"type": "set"
		},
		"result": null,
		"status": "open",
		"subject_external": null
	},
	"reference": "d901088d-68ef-473a-9631-f22d116a6331",
	"type": "case"
}, {
	"instance": {
		"attributes": {
			"additionele_informatie": "<p>fdg;jdf ;lghdfklgjhdf kgjdhf kgdsmd</p>",
			"afdeling": "Stadsreiniging",
			"omschrijving": "Een leuke omschrijving voor een mooie concepttekst",
			"portefeuillehouder1": "Jemoeder"
		},
		"casetype": {
			"instance": {
				"name": "Voorstel"
			},
			"reference": "c79fb00d-2ea0-4fbf-b821-d3b2239f4b3d",
			"type": "casetype"
		},
		"child_relations": {
			"instance": {
				"rows": []
			},
			"type": "set"
		},
		"date_of_registration": "2015-12-08T13:11:59Z",
		"date_target": "2016-01-07T13:11:59Z",
		"id": "f02e22d4-00ed-4903-943f-a6935458ac8c",
		"number": 29,
		"parent_relation": {},
		"phase": "Afhandelen",
		"relations": {
			"instance": {
				"rows": [{
					"reference": "072affbd-7090-4b65-a4d8-cb31f8d20b72",
					"type": "case"
				}, {
					"reference": "831bc59b-eece-42d5-a4cd-757236752368",
					"type": "case"
				}, {
					"reference": "ffca87b4-cb86-4567-b783-3c10424c3229",
					"type": "case"
				}]
			},
			"type": "set"
		},
		"result": null,
		"status": "open",
		"subject_external": null
	},
	"reference": "f02e22d4-00ed-4903-943f-a6935458ac8c",
	"type": "case"
}, {
	"instance": {
		"attributes": {
			"afdeling": "Huurcommissie",
			"agendapunt_nummer": 1,
			"omschrijving": "get money",
			"portefeuillehouder1": "Matthieu de Boer"
		},
		"casetype": {
			"instance": {
				"name": "Voorstel"
			},
			"reference": "c79fb00d-2ea0-4fbf-b821-d3b2239f4b3d",
			"type": "casetype"
		},
		"child_relations": {
			"instance": {
				"rows": []
			},
			"type": "set"
		},
		"date_of_registration": "2015-11-23T14:41:06Z",
		"date_target": "2015-12-23T14:41:06Z",
		"id": "cf23c024-cd0d-447f-9638-f78be103f449",
		"number": 21,
		"parent_relation": {},
		"phase": "Afhandelen",
		"relations": {
			"instance": {
				"rows": [{
					"reference": "3ede210e-cd9b-4000-bb16-0c9e0b15f6a5",
					"type": "case"
				}, {
					"reference": "b8a5db43-7930-4a0d-a31b-75c900e3732e",
					"type": "case"
				}]
			},
			"type": "set"
		},
		"result": null,
		"status": "open",
		"subject_external": null
	},
	"reference": "cf23c024-cd0d-447f-9638-f78be103f449",
	"type": "case"
}]
